{
  "project_info": {
    "project_number": "502872097705",
    "firebase_url": "https://teametapp-f6c85.firebaseio.com",
    "project_id": "teametapp-f6c85",
    "storage_bucket": "teametapp-f6c85.appspot.com"
  },
  "client": [
    {
      "client_info": {
        "mobilesdk_app_id": "1:502872097705:android:73893d4927f8278b",
        "android_client_info": {
          "package_name": "com.example.nicolas.myapplication"
        }
      },
      "oauth_client": [
        {
          "client_id": "502872097705-jc8nv3iods6fq2t6q4jdb5lg3pp9mmc9.apps.googleusercontent.com",
          "client_type": 1,
          "android_info": {
            "package_name": "com.example.nicolas.myapplication",
            "certificate_hash": "bf57d8eb3c4f67d97ca5abcb46261309d026b2e7"
          }
        },
        {
          "client_id": "502872097705-erg8hh1ik35quiobe5usid00h51l9a8q.apps.googleusercontent.com",
          "client_type": 1,
          "android_info": {
            "package_name": "com.example.nicolas.myapplication",
            "certificate_hash": "f30b4a46f833b5a5713a00ecd4d23c03d9aed190"
          }
        },
        {
          "client_id": "502872097705-515r34r5ag3120kuvh3r8fun0cd5mph7.apps.googleusercontent.com",
          "client_type": 3
        }
      ],
      "api_key": [
        {
          "current_key": "AIzaSyDptqYneL-DjnXHEMPGkT8Vxkh07OdICX0"
        }
      ],
      "services": {
        "analytics_service": {
          "status": 1
        },
        "appinvite_service": {
          "status": 2,
          "other_platform_oauth_client": [
            {
              "client_id": "502872097705-515r34r5ag3120kuvh3r8fun0cd5mph7.apps.googleusercontent.com",
              "client_type": 3
            }
          ]
        },
        "ads_service": {
          "status": 2
        }
      }
    }
  ],
  "configuration_version": "1"
}